simulations/Models/Motor/data/STEP31.5/F0002CH2.CSV

Record Length,2.500000e+03,,  -0.000026000000,   2.09440,
Sample Interval,1.000000e-07,,  -0.000025900000,   1.97120,
Trigger Point,2.600000000000e+02,,  -0.000025800000,   1.97120,
,,,  -0.000025700000,   1.97120,
,,,  -0.000025600000,   1.97120,
,,,  -0.000025500000,   1.97120,
Source,CH2,,  -0.000025400000,   1.84800,
Vertical Units,A,,  -0.000025300000,   1.84800,
Vertical Scale,3.080000e+00,,  -0.000025200000,   1.84800,
Vertical Offset,-9.116800e+00,,  -0.000025100000,   1.72480,
Horizontal Units,s,,  -0.000025000000,   1.72480,
Horizontal Scale,2.500000e-05,,  -0.000024900000,   1.72480,
Pt Fmt,Y,,  -0.000024800000,   1.60160,
Yzero,0.000000e+00,,  -0.000024700000,   1.60160,
Probe Atten,1.000000e+02,,  -0.000024600000,   1.60160,
Model Number,TDS2004C,,  -0.000024500000,   1.47840,
Serial Number,C012101,,  -0.000024400000,   1.47840,
Firmware Version,FV:v24.17,,  -0.000024300000,   1.47840,
,,,-00.000024200000,   1.35520,
,,,-00.000024100000,   1.35520,
,,,-00.000024000000,   1.35520,
,,,-00.000023900000,   1.35520,
,,,-00.000023800000,   1.35520,
,,,-00.000023700000,   1.35520,
,,,-00.000023600000,   1.35520,
,,,-00.000023500000,   1.35520,
,,,-00.000023400000,   1.35520,
,,,-00.000023300000,   1.35520,
,,,-00.000023200000,   1.35520,
,,,-00.000023100000,   1.35520,
,,,-00.000023000000,   1.35520,
,,,-00.000022900000,   1.35520,
,,,-00.000022800000,   1.35520,
,,,-00.000022700000,   1.23200,
,,,-00.000022600000,   1.23200,
,,,-00.000022500000,   1.23200,
,,,-00.000022400000,   1.23200,
,,,-00.000022300000,   1.23200,
,,,-00.000022200000,   1.23200,
,,,-00.000022100000,   1.23200,
,,,-00.000022000000,   1.23200,
,,,-00.000021900000,   1.23200,
,,,-00.000021800000,   1.23200,
,,,-00.000021700000,   1.23200,
,,,-00.000021600000,   1.23200,
,,,-00.000021500000,   1.23200,
,,,-00.000021400000,   1.23200,
,,,-00.000021300000,   1.23200,
,,,-00.000021200000,   1.23200,
,,,-00.000021100000,   1.23200,
,,,-00.000021000000,   1.23200,
,,,-00.000020900000,   1.23200,
,,,-00.000020800000,   1.23200,
,,,-00.000020700000,   1.10880,
,,,-00.000020600000,   1.10880,
,,,-00.000020500000,   1.10880,
,,,-00.000020400000,   1.10880,
,,,-00.000020300000,   1.10880,
,,,-00.000020200000,   1.10880,
,,,-00.000020100000,   1.10880,
,,,-00.000020000000,   1.10880,
,,,-00.000019900000,   1.23200,
,,,-00.000019800000,   1.10880,
,,,-00.000019700000,   1.10880,
,,,-00.000019600000,   1.10880,
,,,-00.000019500000,   1.10880,
,,,-00.000019400000,   1.10880,
,,,-00.000019300000,   1.10880,
,,,-00.000019200000,   1.10880,
,,,-00.000019100000,   1.10880,
,,,-00.000019000000,   1.10880,
,,,-00.000018900000,   1.10880,
,,,-00.000018800000,   1.10880,
,,,-00.000018700000,   1.10880,
,,,-00.000018600000,   1.10880,
,,,-00.000018500000,   1.10880,
,,,-00.000018400000,   1.10880,
,,,-00.000018300000,   1.10880,
,,,-00.000018200000,   1.10880,
,,,-00.000018100000,   1.10880,
,,,-00.000018000000,   1.10880,
,,,-00.000017900000,   1.10880,
,,,-00.000017800000,   1.10880,
,,,-00.000017700000,   1.10880,
,,,-00.000017600000,   1.10880,
,,,-00.000017500000,   1.10880,
,,,-00.000017400000,   1.10880,
,,,-00.000017300000,   1.10880,
,,,-00.000017200000,   1.10880,
,,,-00.000017100000,   1.10880,
,,,-00.000017000000,   1.10880,
,,,-00.000016900000,   1.10880,
,,,-00.000016800000,   1.10880,
,,,-00.000016700000,   1.10880,
,,,-00.000016600000,   1.10880,
,,,-00.000016500000,   1.10880,
,,,-00.000016400000,   1.10880,
,,,-00.000016300000,   1.10880,
,,,-00.000016200000,   1.10880,
,,,-00.000016100000,   1.10880,
,,,-00.000016000000,   1.10880,
,,,-00.000015900000,   1.10880,
,,,-00.000015800000,   1.10880,
,,,-00.000015700000,   1.10880,
,,,-00.000015600000,   1.10880,
,,,-00.000015500000,   1.10880,
,,,-00.000015400000,   1.10880,
,,,-00.000015300000,   1.10880,
,,,-00.000015200000,   1.10880,
,,,-00.000015100000,   1.10880,
,,,-00.000015000000,   1.10880,
,,,-00.000014900000,   1.10880,
,,,-00.000014800000,   1.10880,
,,,-00.000014700000,   1.10880,
,,,-00.000014600000,   1.10880,
,,,-00.000014500000,   1.10880,
,,,-00.000014400000,   1.10880,
,,,-00.000014300000,   1.10880,
,,,-00.000014200000,   1.10880,
,,,-00.000014100000,   1.10880,
,,,-00.000014000000,   1.10880,
,,,-00.000013900000,   1.10880,
,,,-00.000013800000,   1.10880,
,,,-00.000013700000,   1.10880,
,,,-00.000013600000,   1.10880,
,,,-00.000013500000,   1.10880,
,,,-00.000013400000,   1.10880,
,,,-00.000013300000,   1.10880,
,,,-00.000013200000,   1.10880,
,,,-00.000013100000,   1.10880,
,,,-00.000013000000,   1.10880,
,,,-00.000012900000,   1.10880,
,,,-00.000012800000,   1.10880,
,,,-00.000012700000,   1.10880,
,,,-00.000012600000,   1.10880,
,,,-00.000012500000,   1.10880,
,,,-00.000012400000,   1.10880,
,,,-00.000012300000,   1.10880,
,,,-00.000012200000,   1.10880,
,,,-00.000012100000,   1.10880,
,,,-00.000012000000,   1.10880,
,,,-00.000011900000,   1.10880,
,,,-00.000011800000,   1.10880,
,,,-00.000011700000,   1.10880,
,,,-00.000011600000,   1.10880,
,,,-00.000011500000,   1.10880,
,,,-00.000011400000,   1.10880,
,,,-00.000011300000,   1.10880,
,,,-00.000011200000,   1.10880,
,,,-00.000011100000,   1.10880,
,,,-00.000011000000,   1.10880,
,,,-00.000010900000,   1.10880,
,,,-00.000010800000,   1.10880,
,,,-00.000010700000,   1.10880,
,,,-00.000010600000,   1.10880,
,,,-00.000010500000,   1.10880,
,,,-00.000010400000,   1.10880,
,,,-00.000010300000,   1.10880,
,,,-00.000010200000,   1.10880,
,,,-00.000010100000,   1.10880,
,,,-00.000010000000,   1.10880,
,,,-00.000009900000,   1.10880,
,,,-00.000009800000,   1.10880,
,,,-00.000009700000,   1.10880,
,,,-00.000009600000,   1.10880,
,,,-00.000009500000,   1.10880,
,,,-00.000009400000,   1.10880,
,,,-00.000009300000,   1.10880,
,,,-00.000009200000,   1.10880,
,,,-00.000009100000,   1.10880,
,,,-00.000009000000,   1.10880,
,,,-00.000008900000,   1.10880,
,,,-00.000008800000,   1.10880,
,,,-00.000008700000,   1.10880,
,,,-00.000008600000,   1.10880,
,,,-00.000008500000,   1.10880,
,,,-00.000008400000,   1.10880,
,,,-00.000008300000,   1.10880,
,,,-00.000008200000,   1.10880,
,,,-00.000008100000,   1.10880,
,,,-00.000008000000,   1.10880,
,,,-00.000007900000,   1.10880,
,,,-00.000007800000,   1.10880,
,,,-00.000007700000,   1.10880,
,,,-00.000007600000,   1.10880,
,,,-00.000007500000,   1.10880,
,,,-00.000007400000,   1.10880,
,,,-00.000007300000,   1.10880,
,,,-00.000007200000,   1.10880,
,,,-00.000007100000,   1.10880,
,,,-00.000007000000,   1.10880,
,,,-00.000006900000,   1.10880,
,,,-00.000006800000,   1.10880,
,,,-00.000006700000,   1.10880,
,,,-00.000006600000,   1.10880,
,,,-00.000006500000,   1.10880,
,,,-00.000006400000,   1.10880,
,,,-00.000006300000,   1.10880,
,,,-00.000006200000,   1.10880,
,,,-00.000006100000,   1.10880,
,,,-00.000006000000,   1.10880,
,,,-00.000005900000,   1.10880,
,,,-00.000005800000,   1.10880,
,,,-00.000005700000,   1.10880,
,,,-00.000005600000,   1.10880,
,,,-00.000005500000,   1.10880,
,,,-00.000005400000,   1.10880,
,,,-00.000005300000,   1.10880,
,,,-00.000005200000,   1.10880,
,,,-00.000005100000,   1.10880,
,,,-00.000005000000,   1.10880,
,,,-00.000004900000,   1.10880,
,,,-00.000004800000,   1.10880,
,,,-00.000004700000,   1.10880,
,,,-00.000004600000,   1.10880,
,,,-00.000004500000,   1.10880,
,,,-00.000004400000,   0.98560,
,,,-00.000004300000,   0.98560,
,,,-00.000004200000,   1.10880,
,,,-00.000004100000,   1.10880,
,,,-00.000004000000,   1.10880,
,,,-00.000003900000,   1.10880,
,,,-00.000003800000,   1.10880,
,,,-00.000003700000,   1.10880,
,,,-00.000003600000,   0.98560,
,,,-00.000003500000,   0.98560,
,,,-00.000003400000,   0.98560,
,,,-00.000003300000,   0.98560,
,,,-00.000003200000,   0.98560,
,,,-00.000003100000,   1.10880,
,,,-00.000003000000,   0.98560,
,,,-00.000002900000,   0.98560,
,,,-00.000002800000,   1.10880,
,,,-00.000002700000,   0.98560,
,,,-00.000002600000,   0.98560,
,,,-00.000002500000,   0.98560,
,,,-00.000002400000,   0.98560,
,,,-00.000002300000,   0.98560,
,,,-00.000002200000,   0.98560,
,,,-00.000002100000,   0.98560,
,,,-00.000002000000,   0.98560,
,,,-00.000001900000,   0.98560,
,,,-00.000001800000,   0.98560,
,,,-00.000001700000,   0.98560,
,,,-00.000001600000,   1.10880,
,,,-00.000001500000,   1.10880,
,,,-00.000001400000,   0.98560,
,,,-00.000001300000,   0.98560,
,,,-00.000001200000,   0.98560,
,,,-00.000001100000,   0.98560,
,,,-00.000001000000,   0.98560,
,,,-00.000000900000,   0.98560,
,,,-00.000000800000,   0.98560,
,,,-00.000000700000,   1.10880,
,,,-00.000000600000,   0.98560,
,,,-00.000000500000,   1.10880,
,,,-00.000000400000,   0.98560,
,,,-00.000000300000,   0.98560,
,,,-00.000000200000,   0.98560,
,,,-00.000000100000,   1.10880,
,,,-00.000000000000,   0.98560,
,,,00.000000100000,   0.98560,
,,,00.000000200000,   0.98560,
,,,00.000000300000,   0.98560,
,,,00.000000400000,   0.98560,
,,,00.000000500000,   0.98560,
,,,00.000000600000,   1.10880,
,,,00.000000700000,   1.47840,
,,,00.000000800000,   1.23200,
,,,00.000000900000,   0.86240,
,,,00.000001000000,   0.49280,
,,,00.000001100000,   0.00000,
,,,00.000001200000,  -0.24640,
,,,00.000001300000,  -0.24640,
,,,00.000001400000,  -0.12320,
,,,00.000001500000,   0.24640,
,,,00.000001600000,   0.61600,
,,,00.000001700000,   0.86240,
,,,00.000001800000,   0.98560,
,,,00.000001900000,   0.98560,
,,,00.000002000000,   0.86240,
,,,00.000002100000,   0.73920,
,,,00.000002200000,   0.86240,
,,,00.000002300000,   0.98560,
,,,00.000002400000,   1.23200,
,,,00.000002500000,   1.35520,
,,,00.000002600000,   1.60160,
,,,00.000002700000,   1.60160,
,,,00.000002800000,   1.60160,
,,,00.000002900000,   1.60160,
,,,00.000003000000,   1.60160,
,,,00.000003100000,   1.60160,
,,,00.000003200000,   1.72480,
,,,00.000003300000,   1.84800,
,,,00.000003400000,   1.97120,
,,,00.000003500000,   2.21760,
,,,00.000003600000,   2.34080,
,,,00.000003700000,   2.34080,
,,,00.000003800000,   2.34080,
,,,00.000003900000,   2.34080,
,,,00.000004000000,   2.46400,
,,,00.000004100000,   2.58720,
,,,00.000004200000,   2.71040,
,,,00.000004300000,   2.83360,
,,,00.000004400000,   3.08000,
,,,00.000004500000,   3.20320,
,,,00.000004600000,   3.20320,
,,,00.000004700000,   3.32640,
,,,00.000004800000,   3.32640,
,,,00.000004900000,   3.44960,
,,,00.000005000000,   3.57280,
,,,00.000005100000,   3.69600,
,,,00.000005200000,   3.81920,
,,,00.000005300000,   3.94240,
,,,00.000005400000,   4.06560,
,,,00.000005500000,   4.06560,
,,,00.000005600000,   4.18880,
,,,00.000005700000,   4.31200,
,,,00.000005800000,   4.31200,
,,,00.000005900000,   4.43520,
,,,00.000006000000,   4.55840,
,,,00.000006100000,   4.68160,
,,,00.000006200000,   4.80480,
,,,00.000006300000,   4.92800,
,,,00.000006400000,   4.92800,
,,,00.000006500000,   5.05120,
,,,00.000006600000,   5.17440,
,,,00.000006700000,   5.17440,
,,,00.000006800000,   5.29760,
,,,00.000006900000,   5.42080,
,,,00.000007000000,   5.54400,
,,,00.000007100000,   5.66720,
,,,00.000007200000,   5.66720,
,,,00.000007300000,   5.79040,
,,,00.000007400000,   5.91360,
,,,00.000007500000,   5.91360,
,,,00.000007600000,   6.03680,
,,,00.000007700000,   6.16000,
,,,00.000007800000,   6.16000,
,,,00.000007900000,   6.28320,
,,,00.000008000000,   6.40640,
,,,00.000008100000,   6.52960,
,,,00.000008200000,   6.52960,
,,,00.000008300000,   6.65280,
,,,00.000008400000,   6.77600,
,,,00.000008500000,   6.77600,
,,,00.000008600000,   6.89920,
,,,00.000008700000,   7.02240,
,,,00.000008800000,   7.02240,
,,,00.000008900000,   7.14560,
,,,00.000009000000,   7.26880,
,,,00.000009100000,   7.26880,
,,,00.000009200000,   7.39200,
,,,00.000009300000,   7.51520,
,,,00.000009400000,   7.51520,
,,,00.000009500000,   7.63840,
,,,00.000009600000,   7.76160,
,,,00.000009700000,   7.76160,
,,,00.000009800000,   7.88480,
,,,00.000009900000,   7.88480,
,,,00.000010000000,   8.00800,
,,,00.000010100000,   8.13120,
,,,00.000010200000,   8.13120,
,,,00.000010300000,   8.25440,
,,,00.000010400000,   8.37760,
,,,00.000010500000,   8.37760,
,,,00.000010600000,   8.50080,
,,,00.000010700000,   8.62400,
,,,00.000010800000,   8.62400,
,,,00.000010900000,   8.74720,
,,,00.000011000000,   8.74720,
,,,00.000011100000,   8.87040,
,,,00.000011200000,   8.99360,
,,,00.000011300000,   8.99360,
,,,00.000011400000,   9.11680,
,,,00.000011500000,   9.24000,
,,,00.000011600000,   9.24000,
,,,00.000011700000,   9.36320,
,,,00.000011800000,   9.36320,
,,,00.000011900000,   9.48640,
,,,00.000012000000,   9.48640,
,,,00.000012100000,   9.60960,
,,,00.000012200000,   9.73280,
,,,00.000012300000,   9.73280,
,,,00.000012400000,   9.85600,
,,,00.000012500000,   9.85600,
,,,00.000012600000,   9.97920,
,,,00.000012700000,  10.10240,
,,,00.000012800000,  10.10240,
,,,00.000012900000,  10.22560,
,,,00.000013000000,  10.22560,
,,,00.000013100000,  10.34880,
,,,00.000013200000,  10.47200,
,,,00.000013300000,  10.47200,
,,,00.000013400000,  10.59520,
,,,00.000013500000,  10.59520,
,,,00.000013600000,  10.71840,
,,,00.000013700000,  10.71840,
,,,00.000013800000,  10.84160,
,,,00.000013900000,  10.96480,
,,,00.000014000000,  10.96480,
,,,00.000014100000,  11.08800,
,,,00.000014200000,  11.08800,
,,,00.000014300000,  11.21120,
,,,00.000014400000,  11.21120,
,,,00.000014500000,  11.33440,
,,,00.000014600000,  11.45760,
,,,00.000014700000,  11.45760,
,,,00.000014800000,  11.58080,
,,,00.000014900000,  11.58080,
,,,00.000015000000,  11.70400,
,,,00.000015100000,  11.70400,
,,,00.000015200000,  11.82720,
,,,00.000015300000,  11.82720,
,,,00.000015400000,  11.95040,
,,,00.000015500000,  11.95040,
,,,00.000015600000,  12.07360,
,,,00.000015700000,  12.07360,
,,,00.000015800000,  12.19680,
,,,00.000015900000,  12.32000,
,,,00.000016000000,  12.32000,
,,,00.000016100000,  12.44320,
,,,00.000016200000,  12.44320,
,,,00.000016300000,  12.56640,
,,,00.000016400000,  12.56640,
,,,00.000016500000,  12.68960,
,,,00.000016600000,  12.68960,
,,,00.000016700000,  12.81280,
,,,00.000016800000,  12.81280,
,,,00.000016900000,  12.93600,
,,,00.000017000000,  12.93600,
,,,00.000017100000,  13.05920,
,,,00.000017200000,  13.05920,
,,,00.000017300000,  13.18240,
,,,00.000017400000,  13.18240,
,,,00.000017500000,  13.30560,
,,,00.000017600000,  13.30560,
,,,00.000017700000,  13.42880,
,,,00.000017800000,  13.42880,
,,,00.000017900000,  13.55200,
,,,00.000018000000,  13.55200,
,,,00.000018100000,  13.67520,
,,,00.000018200000,  13.67520,
,,,00.000018300000,  13.79840,
,,,00.000018400000,  13.79840,
,,,00.000018500000,  13.92160,
,,,00.000018600000,  13.92160,
,,,00.000018700000,  14.04480,
,,,00.000018800000,  14.04480,
,,,00.000018900000,  14.16800,
,,,00.000019000000,  14.16800,
,,,00.000019100000,  14.29120,
,,,00.000019200000,  14.29120,
,,,00.000019300000,  14.41440,
,,,00.000019400000,  14.41440,
,,,00.000019500000,  14.53760,
,,,00.000019600000,  14.53760,
,,,00.000019700000,  14.66080,
,,,00.000019800000,  14.66080,
,,,00.000019900000,  14.78400,
,,,00.000020000000,  14.78400,
,,,00.000020100000,  14.90720,
,,,00.000020200000,  14.90720,
,,,00.000020300000,  15.03040,
,,,00.000020400000,  15.03040,
,,,00.000020500000,  15.15360,
,,,00.000020600000,  15.15360,
,,,00.000020700000,  14.90720,
,,,00.000020800000,  14.66080,
,,,00.000020900000,  15.27680,
,,,00.000021000000,  16.01600,
,,,00.000021100000,  16.75520,
,,,00.000021200000,  17.24800,
,,,00.000021300000,  17.61760,
,,,00.000021400000,  17.61760,
,,,00.000021500000,  17.12480,
,,,00.000021600000,  16.50880,
,,,00.000021700000,  16.13920,
,,,00.000021800000,  15.89280,
,,,00.000021900000,  15.89280,
,,,00.000022000000,  16.01600,
,,,00.000022100000,  16.38560,
,,,00.000022200000,  16.50880,
,,,00.000022300000,  16.50880,
,,,00.000022400000,  16.13920,
,,,00.000022500000,  15.89280,
,,,00.000022600000,  15.76960,
,,,00.000022700000,  15.52320,
,,,00.000022800000,  15.64640,
,,,00.000022900000,  15.76960,
,,,00.000023000000,  16.01600,
,,,00.000023100000,  16.01600,
,,,00.000023200000,  16.01600,
,,,00.000023300000,  15.89280,
,,,00.000023400000,  15.64640,
,,,00.000023500000,  15.40000,
,,,00.000023600000,  15.27680,
,,,00.000023700000,  15.27680,
,,,00.000023800000,  15.27680,
,,,00.000023900000,  15.27680,
,,,00.000024000000,  15.27680,
,,,00.000024100000,  15.27680,
,,,00.000024200000,  15.15360,
,,,00.000024300000,  14.90720,
,,,00.000024400000,  14.78400,
,,,00.000024500000,  14.66080,
,,,00.000024600000,  14.53760,
,,,00.000024700000,  14.53760,
,,,00.000024800000,  14.53760,
,,,00.000024900000,  14.53760,
,,,00.000025000000,  14.41440,
,,,00.000025100000,  14.29120,
,,,00.000025200000,  14.16800,
,,,00.000025300000,  14.04480,
,,,00.000025400000,  13.92160,
,,,00.000025500000,  13.92160,
,,,00.000025600000,  13.79840,
,,,00.000025700000,  13.79840,
,,,00.000025800000,  13.79840,
,,,00.000025900000,  13.67520,
,,,00.000026000000,  13.55200,
,,,00.000026100000,  13.55200,
,,,00.000026200000,  13.42880,
,,,00.000026300000,  13.30560,
,,,00.000026400000,  13.18240,
,,,00.000026500000,  13.18240,
,,,00.000026600000,  13.18240,
,,,00.000026700000,  13.05920,
,,,00.000026800000,  13.05920,
,,,00.000026900000,  12.93600,
,,,00.000027000000,  12.81280,
,,,00.000027100000,  12.81280,
,,,00.000027200000,  12.68960,
,,,00.000027300000,  12.56640,
,,,00.000027400000,  12.56640,
,,,00.000027500000,  12.44320,
,,,00.000027600000,  12.44320,
,,,00.000027700000,  12.44320,
,,,00.000027800000,  12.32000,
,,,00.000027900000,  12.32000,
,,,00.000028000000,  12.19680,
,,,00.000028100000,  12.07360,
,,,00.000028200000,  12.07360,
,,,00.000028300000,  11.95040,
,,,00.000028400000,  11.95040,
,,,00.000028500000,  11.95040,
,,,00.000028600000,  11.82720,
,,,00.000028700000,  11.82720,
,,,00.000028800000,  11.70400,
,,,00.000028900000,  11.58080,
,,,00.000029000000,  11.58080,
,,,00.000029100000,  11.45760,
,,,00.000029200000,  11.45760,
,,,00.000029300000,  11.45760,
,,,00.000029400000,  11.33440,
,,,00.000029500000,  11.33440,
,,,00.000029600000,  11.21120,
,,,00.000029700000,  11.21120,
,,,00.000029800000,  11.08800,
,,,00.000029900000,  11.08800,
,,,00.000030000000,  10.96480,
,,,00.000030100000,  10.96480,
,,,00.000030200000,  10.84160,
,,,00.000030300000,  10.84160,
,,,00.000030400000,  10.84160,
,,,00.000030500000,  10.71840,
,,,00.000030600000,  10.71840,
,,,00.000030700000,  10.59520,
,,,00.000030800000,  10.59520,
,,,00.000030900000,  10.47200,
,,,00.000031000000,  10.47200,
,,,00.000031100000,  10.47200,
,,,00.000031200000,  10.34880,
,,,00.000031300000,  10.34880,
,,,00.000031400000,  10.22560,
,,,00.000031500000,  10.22560,
,,,00.000031600000,  10.10240,
,,,00.000031700000,  10.10240,
,,,00.000031800000,  10.10240,
,,,00.000031900000,   9.97920,
,,,00.000032000000,   9.97920,
,,,00.000032100000,   9.85600,
,,,00.000032200000,   9.85600,
,,,00.000032300000,   9.85600,
,,,00.000032400000,   9.73280,
,,,00.000032500000,   9.73280,
,,,00.000032600000,   9.60960,
,,,00.000032700000,   9.60960,
,,,00.000032800000,   9.60960,
,,,00.000032900000,   9.48640,
,,,00.000033000000,   9.48640,
,,,00.000033100000,   9.48640,
,,,00.000033200000,   9.36320,
,,,00.000033300000,   9.36320,
,,,00.000033400000,   9.24000,
,,,00.000033500000,   9.24000,
,,,00.000033600000,   9.24000,
,,,00.000033700000,   9.11680,
,,,00.000033800000,   9.11680,
,,,00.000033900000,   9.11680,
,,,00.000034000000,   8.99360,
,,,00.000034100000,   8.99360,
,,,00.000034200000,   8.87040,
,,,00.000034300000,   8.87040,
,,,00.000034400000,   8.87040,
,,,00.000034500000,   8.74720,
,,,00.000034600000,   8.74720,
,,,00.000034700000,   8.74720,
,,,00.000034800000,   8.62400,
,,,00.000034900000,   8.62400,
,,,00.000035000000,   8.50080,
,,,00.000035100000,   8.50080,
,,,00.000035200000,   8.50080,
,,,00.000035300000,   8.37760,
,,,00.000035400000,   8.37760,
,,,00.000035500000,   8.37760,
,,,00.000035600000,   8.25440,
,,,00.000035700000,   8.25440,
,,,00.000035800000,   8.25440,
,,,00.000035900000,   8.13120,
,,,00.000036000000,   8.13120,
,,,00.000036100000,   8.13120,
,,,00.000036200000,   8.00800,
,,,00.000036300000,   8.00800,
,,,00.000036400000,   8.00800,
